{
  "basics": {
    "name": "Grant Yao",
    "title": "Full Stack Web Developer",
    "picture": "./profilePhoto.jpg",
    "email": "grant_yao@live.ca",
    "phone": "778-898-7767",
    "summary": "Over the past 4 years I have continuously challenged myself with new languages, frameworks and methodologies. My core languages have always been html, css & javascript but I have also worked as a full stack php developer building both bespoke CMS solutions and small business applications. My current role at IAG is Front End Lead for a small React team and have been developing with React and Redux for the past 2 years.",
    "location": {
      "address": "Sutherland",
      "postalCode": "V3J 2L7",
      "city": "Vancouver",
      "country": "Canada",
      "state": "British Columbia"
    },
  "volunteer": [],
  "education": [
    {
      "institution": "University of British Columbia",
      "area": "Sciences",
      "studyType": "Bachelor",
      "startDate": "2010-09-03",
      "endDate": "2014-05-01",
    },
    {
      "institution": "British Columbia Institute of Technology",
      "area": "Sciences",
      "studyType": "Diploma",
      "startDate": "2014-09-03",
      "endDate": "2015-05-01",
    }
  ],
  "awards": [],
  "publications": [],
  "skills": [
    {
      "name": "C#",
      "level": "3/10 -- wouldn't hire this guy",
      "experience": "Developed yun.liunar.com using ASP.NET MVC4"
    },
    {
      "name": "nodeJS",
      "level": "5/10 -- maybe if he goes to church regularly",
      "experience": "Developed yun.liunar.com using ASP.NET MVC4"
    }
    {
      "name": "PHP",
      "level": "6/10 -- are you kidding? It's PHP, hire this guy already!",
      "experience": "Developed yun.liunar.com using ASP.NET MVC4"
    },
    {
      "name": "Python",
      "level": "7/10 -- maybe if he goes to church regularly",
      "experience": "Developed yun.liunar.com using ASP.NET MVC4"
    },
    {
      "name": "Java",
      "level": "3/10 -- maybe if he goes to church regularly",
      "experience": "Developed yun.liunar.com using ASP.NET MVC4"
    },
    {
      "name": "Javascript",
      "level": "7.5/10 -- maybe if he goes to church regularly",
      "experience": "Developed yun.liunar.com using ASP.NET MVC4"
    },
    {
      "name": "HTML",
      "level": "99/10 -- maybe if he goes to church regularly",
      "experience": "Developed yun.liunar.com using ASP.NET MVC4"
    },
    {
      "name": "React",
      "level": "7.5/10 -- maybe if he goes to church regularly",
      "experience": "Developed yun.liunar.com using ASP.NET MVC4"
    }
  ],
  "languages": [
    {
      "language": "English",
      "fluency": "Native speaker",
    },
    {
        "language":"Mandarin Chinese",
        "fluency": "Native speaker",
    },    {
        "language":"French",
        "fluency": "Basic Conversational",
    }
  ],
  "interests": [
    {
      "name": "Band Instruments",
      "keywords": []
    },
    {
      "name": "Tennis",
      "keywords": []
    },
    {
      "name": "Psychology",
      "keywords": []
    }
  ],
  "references": []
}
